MSMR - 3A: Polynomial Growth
…
Take for instance, the 9th row below. The predicted value of y (shown in the .fitted column) is:

\(\hat y_9 = b_0 + b_1 \cdot x_9 + b_2 \cdot x^2_9 + b_3 \cdot x^3_9\)

\(\hat y_9 = b_0 + b_1 \cdot 2 + b_2 \cdot 4 + b_3 \cdot 8\)

\(\hat y_9 = -1.843 + 3.375 \cdot 2 + -0.332 \cdot 4 + 0.0097 \cdot 8\)

\(\hat y_9 = 3.66\).

library(broom)
augment(cubicmod) 

# A tibble: 74 × 10
   syndens poly1 poly2 poly3 .fitted  .resid   .hat .sigma   .cooksd .std.resid
     <dbl> <dbl> <dbl> <dbl>   <dbl>   <dbl>  <dbl>  <dbl>     <dbl>      <dbl>
 1   0.615   0.1  0.01 0.001 -1.51    2.12   0.170    1.62 0.104         1.42  
 2   0.908   0.2  0.04 0.008 -1.18    2.09   0.155    1.63 0.0886        1.39  
 3   0.1     0.6  0.36 0.216  0.0651  0.0349 0.109    1.65 0.0000155     0.0226
 4   1.81    0.7  0.49 0.343  0.361   1.45   0.0992   1.64 0.0240        0.933 
 5   1.44    0.9  0.81 0.729  0.933   0.510  0.0829   1.65 0.00239       0.326 
 6   0.615   1    1    1      1.21   -0.596  0.0759   1.65 0.00294      -0.379 
 7   0.615   1.6  2.56 4.10   2.75   -2.13   0.0465   1.63 0.0217       -1.33  
 8   0.310   1.7  2.89 4.91   2.98   -2.67   0.0433   1.62 0.0316       -1.67  
 9   1.21    2    4    8      3.66   -2.45   0.0361   1.62 0.0217       -1.52  
10   2.19    2.1  4.41 9.26   3.87   -1.68   0.0343   1.64 0.00968      -1.04  
# ℹ 64 more rows
…
