MSMR - Week 4 Exercises: Nested and Crossed
…
once it’s long. “visit_0”, “visit_1”,.. needs to become the numbers 0, 1, …

one variable (patient) contains lots of information that we want to separate out.

data |> separate(variable, into=c("thing1","thing2","thing3",...), sep = "separator")

1 - reshaping

geduc = read_csv("../../data/msmr_gadeduc.csv")

geduc |> 
  pivot_longer(2:last_col(), names_to="visit",values_to="GAD")

# A tibble: 2,600 × 3
   patient      visit     GAD
   <chr>        <chr>   <dbl>
 1 OT_Control_1 visit_0    26
 2 OT_Control_1 visit_1    27
 3 OT_Control_1 visit_2    27
 4 OT_Control_1 visit_3    27
 5 OT_Control_1 visit_4    27
 6 OT_Control_2 visit_0    25
 7 OT_Control_2 visit_1    24
 8 OT_Control_2 visit_2    27
 9 OT_Control_2 visit_3    26
10 OT_Control_2 visit_4    25
# ℹ 2,590 more rows

2 - time is numeric

geduc |> 
  pivot_longer(2:last_col(), names_to="visit",values_to="GAD") |>
  mutate(
    visit = as.numeric(gsub("visit_","",visit))
  ) 

# A tibble: 2,600 × 3
   patient      visit   GAD
   <chr>        <dbl> <dbl>
 1 OT_Control_1     0    26
 2 OT_Control_1     1    27
 3 OT_Control_1     2    27
 4 OT_Control_1     3    27
 5 OT_Control_1     4    27
 6 OT_Control_2     0    25
 7 OT_Control_2     1    24
 8 OT_Control_2     2    27
 9 OT_Control_2     3    26
10 OT_Control_2     4    25
# ℹ 2,590 more rows

3 - splitting up the patient variable

geduc_long <- geduc |> 
  pivot_longer(2:last_col(), names_to="visit",values_to="GAD") |>
  mutate(
    visit = as.numeric(gsub("visit_","",visit))
  ) |>
  separate(patient, into=c("therapist","group","patient"), sep="_")

geduc_long

# A tibble: 2,600 × 5
   therapist group   patient visit   GAD
   <chr>     <chr>   <chr>   <dbl> <dbl>
 1 OT        Control 1           0    26
 2 OT        Control 1           1    27
 3 OT        Control 1           2    27
 4 OT        Control 1           3    27
 5 OT        Control 1           4    27
 6 OT        Control 2           0    25
 7 OT        Control 2           1    24
 8 OT        Control 2           2    27
 9 OT        Control 2           3    26
10 OT        Control 2           4    25
# ℹ 2,590 more rows
…
