MSMR - Data wrangling for surveys & questionnaires
…
let’s see how we can do it for one question first: the recode() function can be very useful, but there are lots of other approaches

recode

survdat %>% 
  mutate(
    q3 = recode(q3, 
                "Very Inaccurate" = 1,
                "Moderately Inaccurate" = 2,
                "Neither Accurate nor Inaccurate" = 3,
                "Moderately Accurate" = 4,
                "Very Accurate" = 5)
  )

# A tibble: 76 × 51
     ppt q1    q2       q3 q4    q5    q6    q7    q8    q9    q10   q11   q12  
   <int> <chr> <chr> <dbl> <chr> <chr> <chr> <chr> <chr> <chr> <chr> <chr> <chr>
 1     1 Mode… Very…     4 Mode… Neit… Mode… Mode… Mode… Mode… Neit… Neit… Mode…
 2     2 Neit… Mode…     4 Neit… Mode… Mode… Mode… Mode… Neit… Neit… Mode… Very…
 3     3 Very… Very…     3 Mode… Mode… Mode… Mode… Neit… Mode… Very… Mode… Very…
 4     4 Very… Mode…     4 Mode… Very… Mode… Mode… Mode… Mode… Mode… Mode… Very…
 5     5 Very… Very…     3 Mode… Mode… Very… Neit… Neit… Mode… Mode… Neit… Mode…
 6     6 Mode… Very…     2 Very… Very… Neit… Mode… Very… Neit… Mode… Mode… Very…
 7     7 Mode… Very…     4 Very… Mode… Mode… Mode… Mode… Neit… Mode… Neit… Very…
 8     8 Mode… Neit…     5 Very… Neit… Neit… Mode… Very… Very… Neit… Mode… Very…
 9     9 Neit… Mode…     5 Very… Very… Neit… Very… Neit… Neit… Very… Mode… Very…
10    10 Neit… Very…     4 Mode… Mode… Neit… Mode… Mode… Mode… Mode… Neit… Very…
# ℹ 66 more rows
# ℹ 38 more variables: q13 <chr>, q14 <chr>, q15 <chr>, q16 <chr>, q17 <chr>,
#   q18 <chr>, q19 <chr>, q20 <chr>, q21 <chr>, q22 <chr>, q23 <chr>,
#   q24 <chr>, q25 <chr>, q26 <chr>, q27 <chr>, q28 <chr>, q29 <chr>,
#   q30 <chr>, q31 <chr>, q32 <chr>, q33 <chr>, q34 <chr>, q35 <chr>,
#   q36 <chr>, q37 <chr>, q38 <chr>, q39 <chr>, q40 <chr>, q41 <chr>,
#   q42 <chr>, q43 <chr>, q44 <chr>, q45 <chr>, q46 <chr>, q47 <chr>, …

ifelse

much more cumbersome as it requires multiple nested ifelse statements: also, to ensure that anyhing that isn’t one of the 5 valid response options gets to be an NA, we have the final “else” specifying that if it’s none of the prespecified options, make it an NA

survdat %>% 
  mutate(
    q3 = ifelse(q3 == "Very Inaccurate", 1,
                ifelse(q3 == "Moderately Inaccurate", 2, 
                       ifelse( q3 == "Neither Accurate nor Inaccurate", 3, 
                               ifelse(q3 == "Moderately Accurate", 4, 
                                      ifelse(q3 == "Very Accurate", 5, NA)))))
  )

# A tibble: 76 × 51
     ppt q1    q2       q3 q4    q5    q6    q7    q8    q9    q10   q11   q12  
   <int> <chr> <chr> <dbl> <chr> <chr> <chr> <chr> <chr> <chr> <chr> <chr> <chr>
 1     1 Mode… Very…     4 Mode… Neit… Mode… Mode… Mode… Mode… Neit… Neit… Mode…
 2     2 Neit… Mode…     4 Neit… Mode… Mode… Mode… Mode… Neit… Neit… Mode… Very…
 3     3 Very… Very…     3 Mode… Mode… Mode… Mode… Neit… Mode… Very… Mode… Very…
 4     4 Very… Mode…     4 Mode… Very… Mode… Mode… Mode… Mode… Mode… Mode… Very…
 5     5 Very… Very…     3 Mode… Mode… Very… Neit… Neit… Mode… Mode… Neit… Mode…
 6     6 Mode… Very…     2 Very… Very… Neit… Mode… Very… Neit… Mode… Mode… Very…
 7     7 Mode… Very…     4 Very… Mode… Mode… Mode… Mode… Neit… Mode… Neit… Very…
 8     8 Mode… Neit…     5 Very… Neit… Neit… Mode… Very… Very… Neit… Mode… Very…
 9     9 Neit… Mode…     5 Very… Very… Neit… Very… Neit… Neit… Very… Mode… Very…
10    10 Neit… Very…     4 Mode… Mode… Neit… Mode… Mode… Mode… Mode… Neit… Very…
# ℹ 66 more rows
# ℹ 38 more variables: q13 <chr>, q14 <chr>, q15 <chr>, q16 <chr>, q17 <chr>,
#   q18 <chr>, q19 <chr>, q20 <chr>, q21 <chr>, q22 <chr>, q23 <chr>,
#   q24 <chr>, q25 <chr>, q26 <chr>, q27 <chr>, q28 <chr>, q29 <chr>,
#   q30 <chr>, q31 <chr>, q32 <chr>, q33 <chr>, q34 <chr>, q35 <chr>,
#   q36 <chr>, q37 <chr>, q38 <chr>, q39 <chr>, q40 <chr>, q41 <chr>,
#   q42 <chr>, q43 <chr>, q44 <chr>, q45 <chr>, q46 <chr>, q47 <chr>, …
…
the final entry here TRUE ~ NA_real_ is a bit like saying “and if it is anything else, make it an NA”. - note we need to specify the type of NA - i.e. because we are making all of the entries numbers, it needs to be NA_real_. If were were making them characters, it would need to be NA_character

survdat %>% 
  mutate(
    q3 = case_when(
      q3 == "Very Inaccurate" ~ 1,
      q3 == "Moderately Inaccurate" ~ 2,
      q3 == "Neither Accurate nor Inaccurate" ~ 3,
      q3 == "Moderately Accurate" ~ 4,
      q3 == "Very Accurate" ~ 5,
      TRUE ~ NA_real_
    )
  )

# A tibble: 76 × 51
     ppt q1    q2       q3 q4    q5    q6    q7    q8    q9    q10   q11   q12  
   <int> <chr> <chr> <dbl> <chr> <chr> <chr> <chr> <chr> <chr> <chr> <chr> <chr>
 1     1 Mode… Very…     4 Mode… Neit… Mode… Mode… Mode… Mode… Neit… Neit… Mode…
 2     2 Neit… Mode…     4 Neit… Mode… Mode… Mode… Mode… Neit… Neit… Mode… Very…
 3     3 Very… Very…     3 Mode… Mode… Mode… Mode… Neit… Mode… Very… Mode… Very…
 4     4 Very… Mode…     4 Mode… Very… Mode… Mode… Mode… Mode… Mode… Mode… Very…
 5     5 Very… Very…     3 Mode… Mode… Very… Neit… Neit… Mode… Mode… Neit… Mode…
 6     6 Mode… Very…     2 Very… Very… Neit… Mode… Very… Neit… Mode… Mode… Very…
 7     7 Mode… Very…     4 Very… Mode… Mode… Mode… Mode… Neit… Mode… Neit… Very…
 8     8 Mode… Neit…     5 Very… Neit… Neit… Mode… Very… Very… Neit… Mode… Very…
 9     9 Neit… Mode…     5 Very… Very… Neit… Very… Neit… Neit… Very… Mode… Very…
10    10 Neit… Very…     4 Mode… Mode… Neit… Mode… Mode… Mode… Mode… Neit… Very…
# ℹ 66 more rows
# ℹ 38 more variables: q13 <chr>, q14 <chr>, q15 <chr>, q16 <chr>, q17 <chr>,
#   q18 <chr>, q19 <chr>, q20 <chr>, q21 <chr>, q22 <chr>, q23 <chr>,
#   q24 <chr>, q25 <chr>, q26 <chr>, q27 <chr>, q28 <chr>, q29 <chr>,
#   q30 <chr>, q31 <chr>, q32 <chr>, q33 <chr>, q34 <chr>, q35 <chr>,
#   q36 <chr>, q37 <chr>, q38 <chr>, q39 <chr>, q40 <chr>, q41 <chr>,
#   q42 <chr>, q43 <chr>, q44 <chr>, q45 <chr>, q46 <chr>, q47 <chr>, …
…
