Week 1 Exercises: Intro to MLM – MSMR
…
Which is essentially the same as asking:

unique(efdat$PID) |> length()

[1] 30

3 - how many observations per ppt?

Solution 7. Here are the counts of trials for each participant.

efdat |> 
  count(PID)

# A tibble: 30 × 2
  PID        n
  <chr>  <int>
1 PPT_01    13
2 PPT_02    12
3 PPT_03    10
4 PPT_04    10
5 PPT_05    10
# ℹ 25 more rows
…
