Week 7 Exercises: PCA & EFA – MSMR
…
# first we bind the columns of the scores, back to 
# the original data which contains the names
jobperf <- 
  bind_cols(
    principal(qperf, nfactors = 3, rotate = "none")$scores,
    jobperf
  ) 

# we can then choose just the 10 people 
# who have the highest scores on PC2 (the teamwork component)
jobperf |> select(name, PC2) |>
  arrange(desc(PC2))

# A tibble: 400 × 2
   name                 PC2
   <chr>              <dbl>
 1 Robinson, Shayla    2.88
 2 Hunt, Maliek        2.56
 3 Kearns, Sarah       2.50
 4 Phillips, Nashelle  2.42
 5 al-Masih, Sawada    2.34
 6 Uren, Bethany       2.29
 7 Dhanoa, Eunice      2.23
 8 Billings, Justin    2.22
 9 Brown, Jameela      2.14
10 Guire, Lucas        2.13
# ℹ 390 more rows
…
