Random Effect Structures
…
hlm_augment(rs_model, level=1) %>% arrange(desc(cooksd))

## # A tibble: 132 × 15
##       id  R_AGE hrs_week toy_type .resid .fitted .ls.r…¹ .ls.f…² .mar.…³ .mar.…⁴
##    <dbl>  <dbl>    <dbl> <fct>     <dbl>   <dbl>   <dbl>   <dbl>   <dbl>   <dbl>
##  1    81  2.91      6.28 SuperZi…  -3.24    6.15 -1.60     4.51   -6.03     8.93
##  2    65 14.0       2.44 G.I.Joe    4.98    8.99  2.69    11.3     9.43     4.55
##  3   115  0.735     1.70 Stretch…  -3.17    3.91 -0.182    0.917  -2.97     3.70
##  4    46 11.6       5.70 Star Wa…  -2.68   14.3  -2.50    14.1     3.34     8.27
##  5    55  1.47      2.77 SuperZi…  -2.11    3.58 -3.36     4.84   -3.45     4.92
##  6   104  2.68      2.74 Rugrats   -1.79    4.47  0.0279   2.65   -2.21     4.89
##  7    23  0.838     1.74 Playmob…  -1.55    2.39  0.585    0.253  -2.91     3.75
##  8    30  5.33      2.99 Furby     -3.10    8.43 -2.72     8.04    0.156    5.17
##  9   130  3.79      2.73 Lego Mi…   2.54    1.25  1.94     1.85   -1.08     4.87
## 10    36  3.16      2.99 My Litt…   1.87    1.29 -0.508    3.66   -2.02     5.18
## # … with 122 more rows, 5 more variables: cooksd <dbl>, mdffits <dbl>,
## #   covtrace <dbl>, covratio <dbl>, leverage.overall <dbl>, and abbreviated
## #   variable names ¹​.ls.resid, ²​.ls.fitted, ³​.mar.resid, ⁴​.mar.fitted
…
For which toy is the model fit the worst (i.e., who has the highest residual?)

hlm_augment(rs_model, level=1) %>% arrange(desc(abs(.resid)))

## # A tibble: 132 × 15
##       id  R_AGE hrs_week toy_type .resid .fitted .ls.r…¹ .ls.f…² .mar.…³ .mar.…⁴
##    <dbl>  <dbl>    <dbl> <fct>     <dbl>   <dbl>   <dbl>   <dbl>   <dbl>   <dbl>
##  1    93  7.78      4.28 G.I.Joe   -5.26  13.0     -4.62  12.4      1.13    6.65
##  2    65 14.0       2.44 G.I.Joe    4.98   8.99     2.69  11.3      9.43    4.55
##  3    56 -3.17      3.47 Lego Mi…  -4.59   1.42    -4.69   1.52    -8.89    5.72
##  4   102 -2.91      5.12 My Litt…  -4.56   1.64    -3.96   1.04   -10.5     7.62
##  5    43 -2.99      3.96 Transfo…  -3.84   0.853   -3.79   0.800   -9.28    6.29
##  6    16  8.41      3.89 G.I.Joe   -3.76  12.2     -3.75  12.2      2.21    6.20
##  7    22  0.763     3.97 Sock Pu…  -3.70   4.46    -3.65   4.42    -5.54    6.30
##  8    62  4.31      3.61 Minecra…  -3.54   7.85    -2.53   6.84    -1.58    5.89
##  9   129  5.00      4.84 My Litt…   3.41   1.60     3.61   1.39    -2.29    7.29
## 10    14 16.4       4.26 G.I.Joe    3.39  13.0      3.99  12.4      9.76    6.63
## # … with 122 more rows, 5 more variables: cooksd <dbl>, mdffits <dbl>,
## #   covtrace <dbl>, covratio <dbl>, leverage.overall <dbl>, and abbreviated
## #   variable names ¹​.ls.resid, ²​.ls.fitted, ³​.mar.resid, ⁴​.mar.fitted
…
