Week 7 Exercises: PCA & EFA – MSMR
…
# first we bind the columns of the scores, back to 
# the original data which contains the names
jobperf <- 
  bind_cols(
    principal(qperf, nfactors = 3, rotate = "none")$scores,
    jobperf
  ) 

# we can then choose just the 10 people 
# who have the highest scores on PC2 (the teamwork component)
jobperf |> select(name, PC2) |>
  arrange(desc(PC2))

# A tibble: 400 × 2
   name                 PC2
   <chr>              <dbl>
 1 Robinson, Shayla    2.88
 2 Hunt, Maliek        2.63
 3 Kearns, Sarah       2.40
 4 Billings, Justin    2.39
 5 Phillips, Nashelle  2.33
 6 al-Masih, Sawada    2.26
 7 Vargas, Joseph      2.16
 8 Reider, Samuel      2.12
 9 Dhanoa, Eunice      2.10
10 Brown, Jameela      1.98
# ℹ 390 more rows
…
