Week 2 Exercises: Logistic and Longitudinal – MSMR
…
How many trials for each participant in each condition.

We can, for each participant, count how many trials they have in total, how many “frames” they see, how many “lives” they see, and how many “frame x lives” combinations they see:

trolley |>
  group_by(PID) |>
  summarise(
    n_trials = n(),
    n_frame = n_distinct(frame),
    n_lives = n_distinct(lives),
    n_combn = n_distinct(frame,lives)
  )

# A tibble: 120 × 5
   PID     n_trials n_frame n_lives n_combn
   <chr>      <int>   <int>   <int>   <int>
 1 PPT_1         12       3       2       6
 2 PPT_10        12       3       2       6
 3 PPT_100       12       3       2       6
 4 PPT_101       12       3       2       6
 5 PPT_102       12       3       2       6
 6 PPT_103       12       3       2       6
 7 PPT_104       12       3       2       6
 8 PPT_105       12       3       2       6
 9 PPT_106       12       3       2       6
10 PPT_107       12       3       2       6
# ℹ 110 more rows
…
